Rank	Stock	Option	ClosePrice	Change	Volume	VolumeChange	OI	OI Change
0	SPY	FEB 17 230 Call	1.80	0.23 (15.1%)	80398	75236 (1457.5%)	62840	4504 (7.7%)
1	GDX	JAN 18 19 Put	2.09	0.19 (10.0%)	40010	40000 (400000.0%)	12384	0 (0.0%)
2	IWM	JAN 17 131 Put	0.35	-0.08 (-17.9%)	37657	4652 (14.1%)	85643	28014 (48.6%)
3	BAC	JAN 17 23 Call	0.42	-0.02 (-3.5%)	30571	16087 (111.1%)	147904	-7032 (-4.5%)
4	AAPL	JAN 17 120 Call	0.50	0.21 (75.4%)	25841	19695 (320.5%)	172933	-349 (-0.2%)
5	SLV	JUL 17 19.5 Call	0.32	0.00 (0.0%)	24902	24877 (99508.0%)	234	25 (12.0%)
6	FB	JAN 17 125 Call	1.12	0.67 (150.6%)	24899	20532 (470.2%)	47524	-579 (-1.2%)
7	APA	FEB 17 60 Put	1.42	-0.05 (-3.4%)	23456	23442 (167442.9%)	341	4 (1.2%)
8	BMY	MAR 17 65 Call	1.08	0.00 (0.0%)	23379	22837 (4213.5%)	8889	331 (3.9%)
9	XLF	JAN 17 24 Call	0.13	0.01 (8.3%)	23319	9270 (66.0%)	116886	3485 (3.1%)
10	QQQ	FEB 17 120 Put	1.47	-0.45 (-23.5%)	21392	-3290 (-13.3%)	25818	5120 (24.7%)
11	HYG	MAR 17 81 Put	0.21	-0.01 (-2.4%)	20500	20500 (0.0%)	40414	7500 (22.8%)
12	XBI	JAN 17 65 Call	1.00	0.18 (21.8%)	17698	17428 (6454.8%)	41783	2881 (7.4%)
13	EEM	JAN 17 36 Call	0.40	-0.16 (-28.8%)	17246	13831 (405.0%)	118374	10171 (9.4%)
14	EFA	JAN 17 57 Put	0.08	-0.01 (-6.3%)	16855	15070 (844.3%)	57070	-1237 (-2.1%)
15	FDC	FEB 17 15 Put	0.50	-0.25 (-33.3%)	15392	15280 (13642.9%)	113	112 (11200.0%)
16	EBAY	JAN 17 31 Call	0.55	0.38 (223.5%)	13288	8641 (185.9%)	10385	765 (8.0%)
17	WMT	FEB 17 70 Call	0.88	-0.37 (-29.7%)	12747	10617 (498.5%)	5249	1321 (33.6%)
18	T	JAN 18 40 Put	3.01	0.31 (11.5%)	12270	12175 (12815.8%)	18295	44 (0.2%)
19	FXI	JAN 17 35.5 Put	0.36	0.06 (20.0%)	11985	11782 (5803.9%)	5545	13 (0.2%)
20	DIS	FEB 17 110 Call	2.52	0.68 (37.1%)	11779	10718 (1010.2%)	36786	-47 (-0.1%)
21	ABT	FEB 17 40 Put	0.95	-0.57 (-37.3%)	11713	11712 (1171200.0%)	859	1 (0.1%)
22	VXX	JAN 17 21 Put	0.30	0.03 (11.3%)	11056	9951 (900.5%)	39617	138 (0.3%)
23	MSFT	FEB 17 62.5 Call	2.14	0.29 (15.4%)	11031	10178 (1193.2%)	34987	469 (1.4%)
24	IBM	JAN 17 160 Put	0.95	-0.18 (-15.6%)	11014	10771 (4432.5%)	18146	9 (0.0%)
25	INFY	APR 17 15 Call	0.95	-0.10 (-9.5%)	10951	10950 (1095000.0%)	2132	0 (0.0%)
26	FCX	FEB 17 16 Call	0.68	0.08 (12.5%)	10691	9544 (832.1%)	12052	298 (2.5%)
27	XOP	JUN 17 42 Put	3.72	0.07 (2.1%)	10505	10496 (116622.2%)	609	1 (0.2%)
28	EXEL	MAY 17 15 Call	2.73	-0.15 (-5.2%)	10466	10466 (0.0%)	345	0 (0.0%)
29	IYR	JUN 17 79 Call	3.05	-0.18 (-5.4%)	10331	10329 (516450.0%)	20404	1 (0.0%)
30	EWZ	JAN 17 33 Put	0.25	0.01 (4.2%)	10316	10278 (27047.4%)	29214	1 (0.0%)
31	TLT	JAN 17 110 Put	0.01	0.01 (100.0%)	10288	9969 (3125.1%)	27594	-10 (-0.0%)
32	GE	JAN 17 32 Call	0.22	0.02 (10.3%)	10175	-2725 (-21.1%)	238546	4299 (1.8%)
33	FEZ	FEB 17 35 Call	0.23	-0.07 (-25.0%)	10149	10131 (56283.3%)	1020	0 (0.0%)
34	XLI	MAR 17 62 Put	1.17	-0.18 (-13.3%)	10030	9936 (10570.2%)	915	-14 (-1.5%)
35	ETE	JAN 17 20 Call	0.50	0.05 (11.1%)	8409	8360 (17061.2%)	93225	6 (0.0%)
36	XLV	JAN 17 73 Call	0.11	0.01 (10.0%)	8248	8226 (37390.9%)	12463	-5 (-0.0%)
37	DXJ	JAN 17 53 Call	0.11	0.00 (4.8%)	8062	-5609 (-41.0%)	23028	-13670 (-37.2%)
38	CASY	MAY 17 125 Call	5.25	0.00 (0.0%)	8040	8037 (267900.0%)	4022	-2 (-0.0%)
39	NKE	JAN 17 55 Call	0.35	0.16 (84.2%)	7932	6280 (380.1%)	31851	-690 (-2.1%)
40	F	JAN 17 13.5 Call	0.05	-0.01 (-10.0%)	7886	7215 (1075.3%)	3388	152 (4.7%)
41	XME	JAN 17 32 Put	0.87	0.30 (52.6%)	7839	7642 (3879.2%)	4597	33 (0.7%)
42	BABA	FEB 17 92.5 Put	3.30	0.08 (2.3%)	7700	4192 (119.5%)	5884	3024 (105.7%)
43	GPS	JAN 17 23 Call	0.86	-0.42 (-32.8%)	7196	15 (0.2%)	8866	5912 (200.1%)
44	JBLU	JAN 17 22 Call	0.53	-0.22 (-30.0%)	7191	6532 (991.2%)	22055	-51 (-0.2%)
45	BP	JAN 17 38 Call	0.45	-0.43 (-48.3%)	6783	-6695 (-49.7%)	31428	-4806 (-13.3%)
46	ILMN	JAN 17 145 Call	5.40	2.03 (60.0%)	6671	6551 (5459.2%)	863	97 (12.7%)
47	RICE	JAN 17 20 Put	0.30	-0.03 (-7.7%)	6111	6111 (0.0%)	2706	0 (0.0%)
48	PAY	FEB 17 18 Call	1.18	-0.05 (-4.1%)	6069	6021 (12543.8%)	230	47 (25.7%)
49	NXPI	APR 17 100 Call	2.28	-0.93 (-28.9%)	6017	6015 (300750.0%)	774	2 (0.3%)
