Rank	Stock	Option	ClosePrice	Change	Volume	VolumeChange	OI	OI Change
0	GDX	JAN 17 20 Put	0.20	-0.06 (-23.5%)	82166	71428 (665.2%)	114722	-1217 (-1.0%)
1	FXI	FEB 17 37 Call	0.38	0.04 (11.8%)	78570	71907 (1079.2%)	24325	6534 (36.7%)
2	EWZ	JAN 17 35 Call	0.87	0.13 (17.6%)	69283	49747 (254.6%)	128587	660 (0.5%)
3	EEM	FEB 17 37 Call	0.37	0.04 (12.3%)	56179	55882 (18815.5%)	14982	-40 (-0.3%)
4	VXX	FEB 17 20 Put	0.60	0.18 (45.1%)	54121	53781 (15817.9%)	2267	165 (7.8%)
5	DIS	JUN 17 115 Call	2.57	0.51 (24.5%)	32901	32839 (52966.1%)	1365	14 (1.0%)
6	GDXJ	JAN 17 32 Put	0.69	-0.24 (-25.9%)	31608	31051 (5574.7%)	39426	4 (0.0%)
7	BX	MAR 17 32 Call	0.73	0.43 (145.8%)	29750	29578 (17196.5%)	36665	-104 (-0.3%)
8	UUP	FEB 17 27 Call	0.16	-0.06 (-28.9%)	29495	26593 (916.4%)	65849	-1596 (-2.4%)
9	IWM	FEB 17 130 Put	1.15	-0.52 (-31.1%)	26446	18580 (236.2%)	89303	2538 (2.9%)
10	SPY	FEB 17 232 Call	0.99	0.19 (23.9%)	26161	23100 (754.7%)	51716	-116 (-0.2%)
11	BAC	JAN 17 23 Call	0.57	0.14 (32.2%)	23968	8978 (59.9%)	144859	6696 (4.8%)
12	F	JAN 17 13 Call	0.37	0.26 (247.6%)	22804	19658 (624.9%)	12680	749 (6.3%)
13	DB	JAN 17 19.5 Call	0.77	0.50 (180.0%)	20829	20660 (12224.9%)	704	120 (20.5%)
14	XRT	JAN 17 40 Put	0.08	0.02 (36.4%)	20005	20003 (1000150.0%)	21723	-2 (-0.0%)
15	DAL	JAN 17 52 Call	0.71	0.16 (27.9%)	19280	19048 (8210.3%)	9934	-10 (-0.1%)
16	XOP	JAN 17 44.5 Call	0.31	0.05 (22.0%)	18834	6551 (53.3%)	12146	10112 (497.1%)
17	JNK	JAN 17 36 Put	0.05	-0.03 (-33.3%)	17319	17319 (0.0%)	20362	0 (0.0%)
18	XLF	MAR 17 20 Put	0.09	-0.02 (-19.0%)	15295	-5966 (-28.1%)	83997	19733 (30.7%)
19	CL	MAY 17 60 Put	1.09	-0.16 (-12.8%)	15016	15003 (115407.7%)	341	8 (2.4%)
20	GE	JAN 17 31 Put	0.21	-0.03 (-14.6%)	14967	8584 (134.5%)	43000	1121 (2.7%)
21	EFA	MAR 17 56 Put	0.55	-0.18 (-24.0%)	14684	14660 (61083.3%)	28429	-24 (-0.1%)
22	PTEN	JAN 17 29 Put	1.38	-0.33 (-19.1%)	14588	13628 (1419.6%)	1966	855 (77.0%)
23	JWN	FEB 17 52.5 Call	1.11	0.42 (60.1%)	14509	14450 (24491.5%)	267	11 (4.3%)
24	AAPL	JAN 17 120 Call	0.25	-0.08 (-24.6%)	13402	4575 (51.8%)	172078	-1417 (-0.8%)
25	ARCC	JUN 17 16 Put	0.57	-0.25 (-30.3%)	12250	12250 (0.0%)	109	0 (0.0%)
26	SMH	FEB 17 65 Put	0.57	-0.07 (-11.5%)	11569	11549 (57745.0%)	11007	10 (0.1%)
27	ABBV	AUG 17 67.5 Call	2.23	0.25 (12.9%)	11555	10886 (1627.2%)	705	659 (1432.6%)
28	C	FEB 17 55 Put	0.49	-0.17 (-25.8%)	11494	9884 (613.9%)	8571	-93 (-1.1%)
29	AMJ	MAR 17 33 Call	0.53	0.10 (23.5%)	11166	11166 (0.0%)	656	0 (0.0%)
30	HYG	MAR 17 82 Put	0.33	-0.04 (-11.0%)	11008	10999 (122211.1%)	49738	-4 (-0.0%)
31	AGN	JAN 17 260 Call	0.13	-0.07 (-35.0%)	10500	10460 (26150.0%)	15201	7 (0.0%)
32	KO	JUN 17 47 Call	0.20	0.01 (5.4%)	10398	10387 (94427.3%)	173	0 (0.0%)
33	M	FEB 17 38 Call	1.03	0.28 (37.3%)	10231	10207 (42529.2%)	663	13 (2.0%)
34	YPF	JAN 18 13 Put	0.88	-0.02 (-2.8%)	10231	10231 (0.0%)	1516	0 (0.0%)
35	T	JAN 18 37 Put	1.72	0.02 (1.2%)	10142	10133 (112588.9%)	15931	6 (0.0%)
36	GG	FEB 17 13 Put	0.37	-0.08 (-17.8%)	10116	-1112 (-9.9%)	11530	10448 (965.6%)
37	WTW	JAN 17 9 Put	0.13	-0.15 (-54.5%)	10045	7029 (233.1%)	20248	2542 (14.4%)
38	CMCSA	AUG 17 85 Call	0.59	0.07 (13.5%)	10043	10043 (0.0%)	22502	0 (0.0%)
39	XLV	JAN 18 73 Call	3.55	0.20 (6.0%)	10001	10001 (0.0%)	371	0 (0.0%)
40	STZ	JAN 17 165 Call	1.35	0.55 (68.8%)	9438	9327 (8402.7%)	2407	70 (3.0%)
41	QQQ	FEB 17 103 Put	0.12	-0.05 (-29.4%)	9005	8951 (16575.9%)	9794	0 (0.0%)
42	ETE	JAN 17 20 Call	0.50	0.13 (33.8%)	8661	-65 (-0.7%)	96165	-806 (-0.8%)
43	ORCL	JAN 17 39 Call	0.38	0.07 (22.6%)	8654	6183 (250.2%)	12257	1919 (18.6%)
44	PYPL	FEB 17 43 Call	0.80	0.29 (55.9%)	8451	8063 (2078.1%)	761	367 (93.1%)
45	KEY	JAN 17 19 Call	0.27	0.07 (32.5%)	8276	4515 (120.0%)	6757	3662 (118.3%)
46	INFY	APR 17 16 Put	1.40	-0.30 (-17.6%)	8219	8189 (27296.7%)	8221	0 (0.0%)
47	FB	JAN 17 120 Call	1.35	0.53 (64.6%)	8183	2829 (52.8%)	57198	-818 (-1.4%)
48	FCX	FEB 17 11 Put	0.11	-0.08 (-40.5%)	7992	7935 (13921.1%)	4728	39 (0.8%)
49	TRUE	APR 17 12.5 Call	1.27	0.02 (2.0%)	7923	6294 (386.4%)	43286	1559 (3.7%)
