Rank	Stock	Option	ClosePrice	Change	Volume	VolumeChange	OI	OI Change
0	GDX	MAR 17 21.5 Put	1.10	-0.11 (-9.5%)	97633	97341 (33336.0%)	1209	-58 (-4.6%)
1	XLF	FEB 17 23 Put	0.35	-0.03 (-6.7%)	92865	84848 (1058.4%)	56702	5369 (10.5%)
2	EEM	JAN 17 36.5 Call	0.20	0.05 (37.9%)	44073	39015 (771.4%)	86281	3288 (4.0%)
3	SPY	JAN 17 226.5 Put	1.20	-0.09 (-6.6%)	42078	34419 (449.4%)	14411	3187 (28.4%)
4	EWZ	MAR 17 40 Call	0.39	0.03 (8.3%)	40057	40043 (286021.4%)	6461	12 (0.2%)
5	ABBV	JAN 17 60 Call	4.15	-0.02 (-0.6%)	31324	31179 (21502.8%)	7053	-84 (-1.2%)
6	BAC	JAN 17 22 Call	1.14	0.27 (31.2%)	26660	7542 (39.4%)	246795	4833 (2.0%)
7	FXI	FEB 17 36 Put	0.75	-0.21 (-22.4%)	26269	26199 (37427.1%)	34512	24 (0.1%)
8	INTC	FEB 17 34 Put	0.35	-0.03 (-6.8%)	25170	24900 (9222.2%)	2990	250 (9.1%)
9	MENT	APR 17 35 Call	2.23	0.00 (0.0%)	24563	24563 (0.0%)	7975	0 (0.0%)
10	QQQ	MAR 17 119 Put	1.83	-0.08 (-4.5%)	23293	19143 (461.3%)	7492	4004 (114.8%)
11	BMY	MAR 17 65 Call	0.99	-0.01 (-0.5%)	23221	19631 (546.8%)	32697	3019 (10.2%)
12	TLT	JAN 17 120 Put	0.35	-0.08 (-17.6%)	22496	22241 (8722.0%)	55662	78 (0.1%)
13	RF	FEB 17 14 Call	0.93	0.12 (14.2%)	21007	21006 (2100600.0%)	7948	1 (0.0%)
14	TSO	JAN 17 85 Put	4.18	0.08 (1.8%)	18551	18533 (102961.1%)	18785	-6 (-0.0%)
15	IWM	FEB 17 140 Call	1.09	0.27 (32.1%)	17461	15733 (910.5%)	28364	660 (2.4%)
16	AAL	JAN 17 40 Call	8.48	1.38 (19.4%)	17338	17309 (59686.2%)	71898	-5 (-0.0%)
17	ABX	FEB 17 16 Put	0.63	0.03 (4.1%)	17306	17169 (12532.1%)	13400	13 (0.1%)
18	F	JAN 17 12.5 Put	0.13	-0.05 (-28.6%)	17226	16743 (3466.5%)	11039	180 (1.7%)
19	EFA	JAN 17 59 Call	0.36	-0.02 (-4.1%)	16457	16007 (3557.1%)	59645	-194 (-0.3%)
20	VXX	JAN 18 10 Put	0.55	0.03 (4.8%)	15909	15304 (2529.6%)	3634	584 (19.1%)
21	HYG	JUN 17 81 Put	0.84	-0.05 (-5.1%)	15008	15008 (0.0%)	3557	0 (0.0%)
22	SVXY	JAN 18 25 Put	0.74	0.01 (1.4%)	15000	15000 (0.0%)	2841	0 (0.0%)
23	ABT	JAN 17 40 Call	1.27	0.40 (45.7%)	14894	13496 (965.4%)	20609	-358 (-1.7%)
24	AAPL	JAN 17 120 Call	0.75	-0.09 (-10.7%)	13727	-25826 (-65.3%)	171574	-1838 (-1.1%)
25	PAY	JAN 17 18 Call	0.55	-0.55 (-50.0%)	13443	13354 (15004.5%)	26288	33 (0.1%)
26	MU	JAN 17 20 Put	0.03	-0.02 (-37.5%)	12321	12073 (4868.1%)	25719	-176 (-0.7%)
27	T	FEB 17 39 Put	0.30	-0.04 (-13.0%)	12038	11823 (5499.1%)	5847	101 (1.8%)
28	GM	JAN 17 38 Call	0.37	0.23 (170.4%)	11904	11669 (4965.5%)	20160	34 (0.2%)
29	XBI	JAN 17 65 Call	1.67	-0.01 (-0.6%)	11361	1398 (14.0%)	41185	3168 (8.3%)
30	ARIA	MAY 17 24 Call	0.03	-0.05 (-66.7%)	11251	-2873 (-20.3%)	13163	13159 (328975.0%)
31	MET	FEB 17 57.5 Call	0.62	0.11 (21.6%)	10941	10881 (18135.0%)	11705	11 (0.1%)
32	GLD	FEB 17 114 Call	1.59	0.17 (12.0%)	10854	10575 (3790.3%)	1999	16 (0.8%)
33	XLU	JAN 17 48 Put	0.42	0.03 (6.4%)	10793	10067 (1386.6%)	23029	-209 (-0.9%)
34	XOP	MAR 17 35 Put	0.45	-0.02 (-4.3%)	10620	10520 (10520.0%)	37731	23 (0.1%)
35	GG	FEB 17 14 Put	0.59	0.01 (0.9%)	10539	8374 (386.8%)	2841	824 (40.9%)
36	UUP	JAN 17 26.5 Put	0.25	-0.01 (-3.8%)	10065	10013 (19255.8%)	12390	0 (0.0%)
37	CAT	JAN 18 80 Call	16.52	0.77 (4.9%)	8732	8731 (873100.0%)	1171	1 (0.1%)
38	BABA	JAN 17 100 Call	0.44	0.17 (61.8%)	8616	3604 (71.9%)	59469	-266 (-0.4%)
39	EBAY	JAN 17 31 Call	0.14	-0.19 (-57.6%)	8294	8047 (3257.9%)	16030	-286 (-1.8%)
40	KRE	JAN 17 55 Put	0.47	-0.28 (-37.3%)	8294	8115 (4533.5%)	5995	-9 (-0.1%)
41	NRG	MAR 17 14 Call	0.85	0.08 (9.7%)	8087	8087 (0.0%)	158	0 (0.0%)
42	VRX	APR 17 12.5 Put	1.10	-0.31 (-22.0%)	7701	7663 (20165.8%)	5158	22 (0.4%)
43	ILMN	JAN 17 160 Call	7.25	5.68 (360.3%)	7070	6522 (1190.1%)	7239	-1253 (-14.8%)
44	HLF	MAY 17 80 Put	30.88	0.65 (2.2%)	7000	-13000 (-65.0%)	10214	10000 (4672.9%)
45	DLTR	MAY 17 97.5 Call	1.00	-0.05 (-4.8%)	7000	7000 (0.0%)	79	0 (0.0%)
46	FCX	JAN 17 16 Call	0.30	0.21 (215.8%)	6955	6409 (1173.8%)	11462	204 (1.8%)
47	JPM	APR 17 92.5 Call	1.57	0.07 (4.3%)	6742	6622 (5518.3%)	459	-64 (-12.2%)
48	UPS	JAN 17 115 Put	1.70	0.45 (35.5%)	6644	6482 (4001.2%)	12762	-71 (-0.6%)
49	LULU	JAN 17 72 Call	0.66	0.20 (42.4%)	6636	6554 (7992.7%)	345	-26 (-7.0%)
