Rank	Stock	Option	ClosePrice	Change	Volume	VolumeChange	OI	OI Change
0	UUP	FEB 17 27 Call	0.19	-0.01 (-5.1%)	94207	94204 (3140133.3%)	353	3 (0.9%)
1	QQQ	FEB 17 110 Put	0.76	0.18 (29.9%)	50950	50916 (149752.9%)	2318	1 (0.0%)
2	IWM	JAN 17 125 Put	0.30	0.02 (7.3%)	48912	46243 (1732.6%)	159383	2337 (1.5%)
3	EEM	JAN 17 34 Put	0.33	0.08 (32.7%)	48187	42093 (690.7%)	152126	5292 (3.6%)
4	SPY	FEB 17 219 Put	2.63	0.31 (13.6%)	45715	41871 (1089.3%)	70944	1246 (1.8%)
5	GE	JAN 17 30 Put	0.13	0.02 (18.2%)	28409	26713 (1575.1%)	141681	782 (0.6%)
6	XLF	FEB 17 25 Call	0.11	0.02 (15.8%)	26357	25749 (4235.0%)	82895	393 (0.5%)
7	GDX	JAN 17 23 Call	0.24	-0.25 (-51.0%)	21032	-60207 (-74.1%)	135622	68549 (102.2%)
8	HYG	JAN 17 86 Put	0.42	-0.03 (-6.7%)	20010	19926 (23721.4%)	47082	28 (0.1%)
9	BAC	JAN 17 22 Call	0.73	0.07 (10.7%)	16579	-12035 (-42.1%)	237442	6267 (2.7%)
10	COG	JAN 17 22.5 Call	1.48	0.25 (20.4%)	15243	14035 (1161.8%)	24917	146 (0.6%)
11	WMT	FEB 17 67.5 Put	1.21	0.12 (11.0%)	14715	14401 (4586.3%)	9078	217 (2.4%)
12	EWZ	JAN 17 34 Call	0.74	-0.15 (-16.9%)	14684	14525 (9135.2%)	90891	31 (0.0%)
13	C	JAN 17 60 Call	1.31	0.02 (1.9%)	13953	3713 (36.3%)	75728	8096 (12.0%)
14	AAPL	JAN 17 117 Call	1.33	-0.41 (-23.6%)	13339	3260 (32.3%)	17050	3775 (28.4%)
15	MDLZ	MAR 17 37 Put	0.58	0.07 (12.6%)	13270	13179 (14482.4%)	5369	89 (1.7%)
16	XLI	JAN 17 61 Put	0.49	0.13 (34.2%)	12946	11883 (1117.9%)	4877	-687 (-12.3%)
17	EFA	JAN 17 61 Call	0.02	0.01 (50.0%)	11730	11720 (117200.0%)	63183	-2 (-0.0%)
18	FOSL	MAR 17 33 Put	7.85	0.20 (2.6%)	11506	11506 (0.0%)	11628	0 (0.0%)
19	XLU	FEB 17 48 Put	0.90	0.09 (11.9%)	11018	10978 (27445.0%)	459	33 (7.7%)
20	FXI	JAN 17 34.5 Put	0.62	0.04 (7.0%)	10817	10167 (1564.2%)	4936	631 (14.7%)
21	GILD	FEB 17 82.5 Call	0.55	0.11 (26.1%)	10755	10085 (1505.2%)	11435	-484 (-4.1%)
22	MSFT	JAN 17 60 Call	2.53	-0.60 (-19.2%)	10316	10000 (3164.6%)	76567	-133 (-0.2%)
23	IYR	JUN 17 79 Call	2.75	0.29 (11.6%)	10044	-32 (-0.3%)	10380	10057 (3113.6%)
24	TWTR	MAR 17 18 Call	1.04	0.00 (0.0%)	9732	-7372 (-43.1%)	33859	14141 (71.7%)
25	RF	JAN 18 12 Put	0.93	-0.07 (-7.5%)	9676	9676 (0.0%)	870	0 (0.0%)
26	TLT	SEP 17 120 Call	4.90	0.10 (2.1%)	9000	9000 (0.0%)	263	0 (0.0%)
27	XBI	JAN 17 65 Call	0.31	-0.03 (-10.3%)	8503	8055 (1798.0%)	8621	-31 (-0.4%)
28	ASHR	JAN 17 26.9 Call	0.03	0.00 (0.0%)	8411	8311 (8311.0%)	10768	0 (0.0%)
29	VRX	JAN 17 47.5 Put	33.00	-0.27 (-0.8%)	7909	7909 (0.0%)	4555	0 (0.0%)
30	MU	JUL 17 22 Call	2.84	-0.17 (-5.7%)	7869	7515 (2122.9%)	10003	194 (2.0%)
31	X	JAN 17 32.5 Put	1.53	0.66 (77.3%)	7726	7722 (193050.0%)	275	4 (1.5%)
32	BEN	JAN 18 45 Call	2.55	0.10 (4.1%)	7700	7696 (192400.0%)	12376	0 (0.0%)
33	ZION	JAN 18 35 Put	2.10	0.05 (2.4%)	6902	6902 (0.0%)	71	0 (0.0%)
34	DIS	FEB 17 110 Call	0.98	-0.00 (-0.0%)	6805	4579 (205.7%)	28729	1692 (6.3%)
35	VXX	MAR 17 20 Put	0.64	-0.09 (-12.3%)	6485	6198 (2159.6%)	11369	-12 (-0.1%)
36	ABX	JAN 17 20 Call	0.06	-0.01 (-14.3%)	6286	3251 (107.1%)	44745	-1373 (-3.0%)
37	AMTD	JAN 18 40 Call	6.80	0.05 (0.7%)	6140	6140 (0.0%)	11310	0 (0.0%)
38	T	APR 17 45 Call	0.48	-0.03 (-5.9%)	5868	5730 (4152.2%)	2600	29 (1.1%)
39	FCX	DEC 17 10 Put	1.14	0.06 (6.0%)	5752	-1351 (-19.0%)	7024	6974 (13948.0%)
40	JBLU	FEB 17 23 Call	1.08	0.20 (22.9%)	5640	-18424 (-76.6%)	23756	23389 (6373.0%)
41	FB	FEB 17 120 Call	3.03	-0.32 (-9.7%)	5608	3546 (172.0%)	32336	-678 (-2.1%)
42	FTNT	FEB 17 23 Put	0.22	0.05 (28.6%)	5572	1022 (22.5%)	4550	4550 (0.0%)
43	XME	JAN 17 30 Put	0.76	0.30 (64.1%)	5318	5311 (75871.4%)	19574	-1 (-0.0%)
44	PRU	MAR 17 115 Call	1.64	0.22 (16.0%)	5310	4951 (1379.1%)	4922	-227 (-4.4%)
45	DXJ	FEB 17 47 Put	0.58	0.05 (9.4%)	5288	5286 (264300.0%)	6001	2 (0.0%)
46	XLV	JAN 17 70 Call	0.44	-0.10 (-17.6%)	5217	5181 (14391.7%)	10032	7 (0.1%)
47	EWW	JAN 17 43 Put	0.54	0.05 (10.3%)	5087	5069 (28161.1%)	10395	-3 (-0.0%)
48	TSLA	FEB 17 235 Call	5.80	0.45 (8.4%)	5076	5068 (63350.0%)	306	2 (0.7%)
49	Q	FEB 17 80 Call	1.40	-0.23 (-13.8%)	5070	5067 (168900.0%)	115	0 (0.0%)
