Rank	Stock	Option	ClosePrice	Change	Volume	VolumeChange	OI	OI Change
0	F	JAN 17 12 Call	0.61	-0.03 (-4.0%)	107503	105877 (6511.5%)	40003	-36 (-0.1%)
1	PG	JAN 17 80 Call	5.23	1.25 (31.4%)	88054	81996 (1353.5%)	19120	-2321 (-10.8%)
2	EEM	MAR 17 40 Call	0.10	-0.03 (-20.8%)	59955	37445 (166.3%)	151192	15505 (11.4%)
3	BAC	JAN 17 23 Call	0.04	-0.26 (-88.1%)	56442	-6555 (-10.4%)	163618	-7323 (-4.3%)
4	XLF	JAN 17 23 Put	0.16	0.10 (153.8%)	54219	19608 (56.7%)	163308	-25738 (-13.6%)
5	AAPL	JAN 17 120 Call	0.66	0.25 (61.7%)	44216	18761 (73.7%)	171197	-1103 (-0.6%)
6	C	JAN 17 60 Call	0.25	-0.51 (-66.9%)	41757	34921 (510.8%)	71960	-3489 (-4.6%)
7	SPY	JAN 17 227 Call	0.42	-0.60 (-59.1%)	41569	-3739 (-8.3%)	91162	-5338 (-5.5%)
8	INTC	JAN 17 36 Call	0.84	-0.02 (-1.8%)	32041	31350 (4536.9%)	58106	-234 (-0.4%)
9	AZN	APR 17 32.5 Call	0.32	-0.15 (-31.6%)	30609	30599 (305990.0%)	27983	-10 (-0.0%)
10	EFA	FEB 17 57 Put	0.17	-0.01 (-2.9%)	29893	26510 (783.6%)	39180	2489 (6.8%)
11	TSO	JAN 17 100 Call	0.02	0.01 (50.0%)	26697	26676 (127028.6%)	1259	21 (1.7%)
12	PAA	JAN 17 30 Call	1.38	-0.27 (-16.7%)	25027	25024 (834133.3%)	1059	-3 (-0.3%)
13	GLD	JAN 17 115 Put	0.34	-0.92 (-73.3%)	20043	19275 (2509.8%)	21204	-825 (-3.7%)
14	TLT	MAR 17 115 Put	0.57	-0.23 (-29.2%)	19521	19425 (20234.4%)	22421	3 (0.0%)
15	FB	JAN 17 130 Call	0.23	-0.29 (-55.8%)	19445	-10711 (-35.5%)	46400	627 (1.4%)
16	IWM	FEB 17 132 Put	1.80	0.54 (43.0%)	18363	9853 (115.8%)	64973	3549 (5.8%)
17	SLV	FEB 17 17 Call	0.19	0.07 (60.9%)	18203	18074 (14010.9%)	15408	60 (0.4%)
18	CAT	JAN 17 80 Call	13.58	-0.93 (-6.4%)	18067	17888 (9993.3%)	5754	-45 (-0.8%)
19	GG	APR 17 14 Put	0.69	-0.22 (-24.3%)	15934	15598 (4642.3%)	14384	196 (1.4%)
20	GDX	MAR 17 17 Put	0.09	-0.04 (-29.2%)	15764	15729 (44940.0%)	21454	7 (0.0%)
21	XOP	JAN 18 38 Put	3.90	-0.20 (-4.9%)	15050	-9759 (-39.3%)	24118	23549 (4138.7%)
22	PFE	JAN 17 32 Put	0.22	0.11 (100.0%)	14991	8534 (132.2%)	44543	-2137 (-4.6%)
23	QQQ	JAN 17 123 Call	0.38	-0.36 (-48.6%)	14708	5207 (54.8%)	20587	1936 (10.4%)
24	XBI	MAR 17 63 Put	3.33	0.62 (22.9%)	14244	14188 (25335.7%)	1468	-1 (-0.1%)
25	UUP	MAR 17 26 Call	0.35	-0.14 (-28.1%)	13927	13793 (10293.3%)	25627	28 (0.1%)
26	CMCSA	JAN 17 72.5 Call	0.53	-0.24 (-30.9%)	13902	12884 (1265.6%)	22585	161 (0.7%)
27	DIS	FEB 17 110 Call	1.51	-0.14 (-8.2%)	13786	13045 (1760.5%)	37687	5 (0.0%)
28	ACWI	APR 17 55 Put	0.35	0.05 (16.7%)	13727	13727 (0.0%)	13727	0 (0.0%)
29	WMT	FEB 17 65 Put	0.37	-0.28 (-43.4%)	12748	12368 (3254.7%)	11277	70 (0.6%)
30	XLI	FEB 17 62 Put	0.68	0.16 (32.0%)	12644	10507 (491.7%)	24804	2115 (9.3%)
31	ETE	JAN 18 15 Put	1.90	0.03 (1.9%)	12480	12480 (0.0%)	5046	0 (0.0%)
32	VXX	JAN 17 21 Put	0.23	-0.05 (-16.4%)	12278	4256 (53.1%)	52053	1391 (2.7%)
33	MSFT	JAN 17 62.5 Call	0.35	-0.18 (-33.3%)	12055	10210 (553.4%)	88600	498 (0.6%)
34	JPM	JAN 17 85 Call	0.24	-1.72 (-87.9%)	11559	7586 (190.9%)	18633	-835 (-4.3%)
35	TWTR	MAR 17 20 Call	0.49	-0.09 (-15.5%)	11414	10978 (2517.9%)	33575	53 (0.2%)
36	P	MAR 17 15 Call	0.36	-0.04 (-10.1%)	10402	9822 (1693.4%)	16076	295 (1.9%)
37	MU	JAN 17 21 Put	0.07	0.01 (16.7%)	10306	9986 (3120.6%)	5015	207 (4.3%)
38	HYG	JUN 17 83 Put	1.16	0.04 (3.1%)	10190	10190 (0.0%)	13516	0 (0.0%)
39	EWZ	FEB 17 40 Call	0.20	0.00 (0.0%)	10015	10002 (76938.5%)	3687	12 (0.3%)
40	MO	MAR 17 70 Call	1.12	0.26 (29.7%)	9371	9184 (4911.2%)	31494	59 (0.2%)
41	XOM	JUN 17 85 Call	4.68	0.45 (10.7%)	8928	8927 (892700.0%)	1904	1 (0.1%)
42	CSCO	JAN 17 30 Call	0.17	-0.06 (-26.1%)	8890	7474 (527.8%)	64288	-163 (-0.3%)
43	BID	JAN 17 38 Put	0.15	-0.10 (-40.0%)	8724	8724 (0.0%)	8197	0 (0.0%)
44	USB	JAN 17 50 Call	0.75	-1.07 (-58.8%)	8695	8625 (12321.4%)	22223	-31 (-0.1%)
45	EWY	APR 17 57 Call	2.22	0.17 (8.0%)	8610	8610 (0.0%)	229	0 (0.0%)
46	WMB	JAN 17 29 Put	0.69	0.05 (8.7%)	8502	8355 (5683.7%)	9868	85 (0.9%)
47	KO	JUN 17 47 Call	0.11	0.03 (40.0%)	8140	8140 (0.0%)	7721	0 (0.0%)
48	RSX	JAN 18 20 Call	3.01	-0.29 (-8.8%)	8045	7859 (4225.3%)	18299	-103 (-0.6%)
49	EPI	FEB 17 21 Call	0.45	-0.05 (-10.0%)	8036	8035 (803500.0%)	106	1 (1.0%)
