Rank	Stock	Option	ClosePrice	Change	Volume	VolumeChange	OI	OI Change
0	GDXJ	JAN 17 32 Put	1.60	0.10 (6.7%)	217630	217493 (158754.0%)	763	98 (14.7%)
1	QQQ	DEC 16 120 Call	0.99	0.72 (264.8%)	87498	77815 (803.6%)	101767	412 (0.4%)
2	GDX	JAN 17 20 Put	0.76	-0.12 (-13.7%)	80241	79378 (9197.9%)	36802	426 (1.2%)
3	SPY	DEC 16 230 Call	0.30	0.19 (160.9%)	71178	33041 (86.6%)	200384	-23234 (-10.4%)
4	BAC	JAN 17 25 Call	0.24	-0.01 (-4.1%)	56535	48628 (615.0%)	84887	1862 (2.2%)
5	XOP	JAN 17 45 Call	0.97	0.26 (35.7%)	55280	52486 (1878.5%)	53237	-66 (-0.1%)
6	AAPL	DEC 16 115 Call	0.94	0.64 (211.7%)	49945	16793 (50.7%)	226961	10184 (4.7%)
7	EEM	MAR 17 36.5 Call	1.18	0.18 (18.0%)	34564	34499 (53075.4%)	578	-30 (-4.9%)
8	UUP	MAR 17 26 Put	0.43	-0.01 (-2.3%)	30412	30298 (26577.2%)	6025	-19 (-0.3%)
9	XLF	JAN 17 25 Call	0.13	0.00 (0.0%)	29433	-3246 (-9.9%)	369022	9209 (2.6%)
10	MSFT	JAN 17 62.5 Call	1.69	0.43 (34.1%)	29186	27570 (1706.1%)	96008	324 (0.3%)
11	GE	DEC 16 32 Call	0.15	-0.05 (-26.8%)	28133	21930 (353.5%)	45513	3295 (7.8%)
12	PFE	JAN 17 30 Put	0.18	-0.03 (-12.5%)	21057	17366 (470.5%)	109961	990 (0.9%)
13	CSCO	JAN 17 31 Call	0.35	0.12 (52.2%)	20439	17435 (580.4%)	24497	2198 (9.9%)
14	GLD	JAN 17 120 Call	0.19	-0.04 (-17.8%)	20344	20251 (21775.3%)	59415	-29 (-0.0%)
15	FXI	FEB 17 38 Call	0.62	0.12 (23.0%)	20183	20167 (126043.8%)	12548	-8 (-0.1%)
16	MRO	JAN 17 11 Put	0.03	-0.01 (-22.2%)	20000	20000 (0.0%)	21756	0 (0.0%)
17	FB	DEC 16 120 Put	0.97	-1.69 (-63.5%)	18896	16100 (575.8%)	21302	262 (1.2%)
18	AVGO	DEC 16 170 Call	9.45	1.15 (13.9%)	18691	18516 (10580.6%)	8905	-141 (-1.6%)
19	SEAS	SEP 17 17 Put	0.90	-0.40 (-30.8%)	17268	17268 (0.0%)	344	0 (0.0%)
20	TLT	FEB 17 123 Call	1.11	0.10 (10.4%)	16042	16007 (45734.3%)	428	-18 (-4.0%)
21	XLK	MAR 17 46 Put	0.69	-0.10 (-12.7%)	15255	15231 (63462.5%)	704	-2 (-0.3%)
22	IWM	DEC 16 136 Put	0.69	-0.20 (-22.0%)	15189	11141 (275.2%)	20805	471 (2.3%)
23	GM	JAN 17 21 Put	0.02	0.00 (0.0%)	15080	6578 (77.4%)	24363	5968 (32.4%)
24	EFA	JAN 17 59 Put	1.02	-0.40 (-28.5%)	15071	15043 (53725.0%)	1297	15 (1.2%)
25	INTC	FEB 17 39 Call	0.57	0.22 (62.9%)	13701	13652 (27861.2%)	741	18 (2.5%)
26	KO	MAY 17 43 Call	1.15	-0.02 (-1.3%)	12916	12854 (20732.3%)	4957	50 (1.0%)
27	SMH	FEB 17 70 Put	2.03	-0.33 (-13.8%)	12545	9928 (379.4%)	22736	2480 (12.2%)
28	JBLU	DEC 16 22 Call	0.75	0.35 (87.5%)	12344	4579 (59.0%)	18418	5725 (45.1%)
29	XOM	JAN 17 95 Call	1.00	0.50 (100.0%)	12074	6317 (109.7%)	47603	931 (2.0%)
30	MPC	JAN 17 60 Call	0.08	-0.05 (-40.0%)	11964	11898 (18027.3%)	30115	11 (0.0%)
31	XLE	DEC 16 64 Put	0.01	0.00 (0.0%)	11933	10922 (1080.3%)	20221	-644 (-3.1%)
32	VXX	DEC 16 26 Put	0.53	0.04 (7.1%)	11803	-3587 (-23.3%)	41261	-8412 (-16.9%)
33	XLV	DEC 16 70 Call	0.24	0.10 (77.8%)	11335	3235 (39.9%)	35344	-5846 (-14.2%)
34	ETE	DEC 16 17 Call	0.41	0.00 (0.0%)	10972	9072 (477.5%)	32577	10 (0.0%)
35	KMI	DEC 16 22 Call	0.05	-0.01 (-18.2%)	10883	8917 (453.6%)	30681	518 (1.7%)
36	WMT	JAN 17 70 Put	0.67	-0.04 (-6.3%)	10695	10131 (1796.3%)	13670	77 (0.6%)
37	PG	APR 17 87.5 Call	1.96	0.05 (2.6%)	10689	10434 (4091.8%)	4179	230 (5.8%)
38	TEVA	JAN 17 45 Call	0.09	-0.04 (-30.8%)	10175	10142 (30733.3%)	37577	-26 (-0.1%)
39	SLV	DEC 16 16 Call	0.19	-0.10 (-34.5%)	9874	7609 (335.9%)	15456	388 (2.6%)
40	DIA	DEC 16 198 Call	1.74	0.77 (80.7%)	9852	6886 (232.2%)	11808	355 (3.1%)
41	TSLA	DEC 16 200 Call	1.90	1.17 (159.6%)	9846	7016 (247.9%)	7569	1300 (20.7%)
42	MGM	DEC 16 29.5 Call	0.55	0.13 (29.4%)	9781	-17597 (-64.3%)	20998	7954 (61.0%)
43	NRG	DEC 16 12 Call	0.78	0.10 (14.8%)	9623	9472 (6272.8%)	23938	73 (0.3%)
44	HYG	JAN 17 95 Call	0.01	0.00 (0.0%)	9000	9000 (0.0%)	33554	0 (0.0%)
45	DVA	JAN 17 62.5 Put	0.77	0.02 (3.3%)	8540	8486 (15714.8%)	313	22 (7.6%)
46	FCX	DEC 16 15 Put	0.28	0.07 (31.0%)	8497	6777 (394.0%)	16548	533 (3.3%)
47	LLY	JAN 17 70 Call	1.55	0.54 (53.7%)	8313	8225 (9346.6%)	3000	26 (0.9%)
48	C	JAN 18 60 Call	7.08	0.03 (0.4%)	8079	7512 (1324.9%)	51230	-490 (-0.9%)
49	XBI	JAN 17 56 Put	1.33	-0.03 (-2.2%)	8055	4995 (163.2%)	3578	2452 (217.8%)
