Rank	Stock	Option	ClosePrice	Change	Volume	VolumeChange	OI	OI Change
0	AAPL	DEC 16 115 Call	0.99	0.09 (10.0%)	178991	154386 (627.5%)	215802	-2069 (-0.9%)
1	SPY	DEC 16 225 Call	1.90	0.44 (29.8%)	118013	95725 (429.5%)	96336	-7764 (-7.5%)
2	XLF	DEC 16 20 Call	3.72	0.27 (8.0%)	108172	107708 (23212.9%)	157090	-438 (-0.3%)
3	EEM	DEC 16 35 Call	0.41	-0.05 (-10.9%)	88167	85195 (2866.6%)	140001	-1725 (-1.2%)
4	BAC	JAN 18 27 Call	1.48	0.16 (12.1%)	76030	69830 (1126.3%)	25335	512 (2.1%)
5	GDX	JAN 17 22 Call	0.25	-0.17 (-40.5%)	63622	58182 (1069.5%)	36617	2135 (6.2%)
6	QQQ	DEC 16 122 Call	0.02	-0.07 (-77.8%)	50583	35226 (229.4%)	62013	6706 (12.1%)
7	UNP	JAN 17 105 Call	3.03	0.88 (40.6%)	36042	35986 (64260.7%)	7330	-14 (-0.2%)
8	IWM	MAR 17 115 Put	0.82	-0.14 (-14.1%)	36005	36000 (720000.0%)	38216	3 (0.0%)
9	SYF	JAN 17 34 Call	3.25	0.67 (26.2%)	34668	33696 (3466.7%)	36285	-366 (-1.0%)
10	EWZ	MAR 17 25 Put	0.40	-0.06 (-13.2%)	29635	29635 (0.0%)	5865	0 (0.0%)
11	WUBA	DEC 16 35 Call	0.08	0.00 (0.0%)	28000	28000 (0.0%)	13267	0 (0.0%)
12	FXI	JAN 17 45 Put	9.73	0.35 (3.7%)	26511	18761 (242.1%)	55137	7695 (16.2%)
13	YHOO	FEB 17 46 Call	0.14	-0.15 (-52.6%)	23017	23012 (460240.0%)	23047	-5 (-0.0%)
14	VXX	DEC 16 26 Put	0.48	0.00 (0.0%)	21495	13114 (156.5%)	45121	678 (1.5%)
15	RRC	JAN 17 40 Call	0.40	-0.08 (-15.8%)	20039	19963 (26267.1%)	10225	-51 (-0.5%)
16	EFA	FEB 17 51 Put	0.16	-0.02 (-11.1%)	20000	20000 (0.0%)	107	0 (0.0%)
17	FB	DEC 16 120 Call	0.88	-0.16 (-15.5%)	19177	-7424 (-27.9%)	36433	-1884 (-4.9%)
18	C	JAN 17 62.5 Call	1.17	0.16 (15.8%)	18690	10729 (134.8%)	40482	1482 (3.8%)
19	MU	JAN 17 21 Call	0.77	0.09 (13.2%)	16563	15627 (1669.6%)	21551	273 (1.3%)
20	KORS	JAN 17 55 Call	0.25	-0.05 (-16.7%)	15839	15739 (15739.0%)	10401	-64 (-0.6%)
21	ABX	DEC 16 14 Put	0.19	0.12 (153.3%)	15687	365 (2.4%)	34478	11 (0.0%)
22	MSFT	DEC 16 63 Call	0.08	-0.18 (-69.2%)	13379	10310 (335.9%)	38782	614 (1.6%)
23	GLD	FEB 17 115 Call	0.72	-0.24 (-25.1%)	12911	11775 (1036.5%)	1730	939 (118.7%)
24	CCL	APR 17 57.5 Call	1.35	0.25 (22.7%)	12716	12704 (105866.7%)	88	2 (2.3%)
25	GE	DEC 16 31 Put	0.06	-0.01 (-15.4%)	12659	-377 (-2.9%)	32594	9957 (44.0%)
26	XOP	MAR 17 40 Put	1.89	-0.16 (-7.8%)	12434	11793 (1839.8%)	43298	178 (0.4%)
27	WBA	DEC 16 85 Call	0.91	-0.28 (-23.9%)	11443	11088 (3123.4%)	16651	-29 (-0.2%)
28	MRO	DEC 16 19 Call	0.10	0.01 (11.8%)	11403	10323 (955.8%)	4006	332 (9.0%)
29	XLE	DEC 16 73 Call	3.53	0.20 (6.0%)	11065	10782 (3809.9%)	17893	-18 (-0.1%)
30	TLT	MAR 17 110 Put	1.18	-0.19 (-13.9%)	10997	10973 (45720.8%)	1239	20 (1.6%)
31	LOW	JAN 17 67.5 Put	0.37	-0.01 (-1.4%)	10701	10682 (56221.1%)	9488	3 (0.0%)
32	DAL	DEC 16 49.5 Call	1.07	0.18 (19.6%)	10381	4061 (64.3%)	22017	5916 (36.7%)
33	XLI	JAN 17 63 Call	0.96	-0.08 (-7.7%)	10174	9882 (3384.2%)	28171	217 (0.8%)
34	JD	MAR 17 25 Put	1.57	0.43 (37.9%)	10137	17 (0.2%)	11923	9957 (506.5%)
35	XOM	APR 17 90 Put	3.45	-0.20 (-5.5%)	10048	9926 (8136.1%)	11130	-16 (-0.1%)
36	OXY	MAY 17 67.5 Put	2.98	-0.12 (-3.9%)	10037	10034 (334466.7%)	519	0 (0.0%)
37	HEDJ	JAN 17 58 Call	0.50	0.07 (17.6%)	10020	10020 (0.0%)	28030	0 (0.0%)
38	SMH	MAY 17 75 Call	2.83	0.43 (17.7%)	10005	9735 (3605.6%)	10273	260 (2.6%)
39	ETE	DEC 16 17 Call	0.53	0.20 (61.5%)	9867	-4954 (-33.4%)	23273	-4941 (-17.5%)
40	F	JAN 18 14.75 Call	0.49	-0.02 (-3.0%)	9276	9043 (3881.1%)	144510	69 (0.0%)
41	IYR	DEC 16 76 Put	0.40	0.02 (5.3%)	9042	-10327 (-53.3%)	48146	9144 (23.4%)
42	SLV	JAN 17 16 Call	0.21	-0.25 (-54.9%)	8870	8361 (1642.6%)	40289	73 (0.2%)
43	HYG	JAN 17 86 Call	0.60	0.01 (1.7%)	8530	8265 (3118.9%)	21057	6 (0.0%)
44	T	DEC 16 41.5 Put	0.16	-0.32 (-65.6%)	8530	3298 (63.0%)	4213	1792 (74.0%)
45	HPQ	DEC 16 15 Call	0.52	-0.11 (-17.6%)	8270	6577 (388.5%)	11185	-960 (-7.9%)
46	EWJ	JAN 17 48 Put	0.29	0.04 (16.3%)	8224	8224 (0.0%)	3281	0 (0.0%)
47	DXJ	JAN 17 53 Call	0.47	0.09 (25.3%)	7986	-12479 (-61.0%)	29638	20351 (219.1%)
48	RSX	JAN 17 17 Put	0.07	0.03 (85.7%)	7969	7958 (72345.5%)	32055	-11 (-0.0%)
49	BABA	JAN 17 85 Put	1.56	0.61 (63.4%)	7936	7585 (2161.0%)	12817	264 (2.1%)
