Rank	Stock	Option	ClosePrice	Change	Volume	VolumeChange	OI	OI Change
0	TLT	FEB 17 127 Call	0.34	-0.01 (-1.4%)	90235	89628 (14765.7%)	1045	345 (49.3%)
1	SPY	JAN 17 220 Put	0.93	0.04 (3.9%)	50970	34755 (214.3%)	297731	4444 (1.5%)
2	IWM	JAN 17 150 Call	0.03	-0.00 (-16.7%)	35932	16681 (86.7%)	19615	12035 (158.8%)
3	FXI	JAN 17 33.5 Put	0.56	0.15 (36.6%)	33437	33409 (119317.9%)	643	26 (4.2%)
4	EEM	JAN 17 31 Put	0.10	0.03 (42.9%)	31305	31305 (0.0%)	56554	0 (0.0%)
5	XLF	JAN 17 22 Put	0.08	-0.01 (-5.9%)	30809	30695 (26925.4%)	82586	102 (0.1%)
6	GE	JAN 17 33 Call	0.18	-0.02 (-10.3%)	27972	26614 (1959.8%)	57966	403 (0.7%)
7	DXJ	JAN 17 46 Call	5.20	-0.00 (-0.0%)	25810	25803 (368614.3%)	15076	0 (0.0%)
8	EFA	MAR 17 52 Put	0.37	0.00 (0.0%)	25627	25577 (51154.0%)	53257	50 (0.1%)
9	DOW	JAN 17 52.5 Call	6.23	-0.38 (-5.7%)	25403	25164 (10528.9%)	13911	-114 (-0.8%)
10	XRT	JAN 17 40 Put	0.10	0.06 (122.2%)	21168	21164 (529100.0%)	538	-4 (-0.7%)
11	BAC	JAN 18 20 Call	4.20	-0.05 (-1.2%)	21145	20690 (4547.3%)	166409	-218 (-0.1%)
12	EWZ	JAN 17 50 Put	18.52	-0.03 (-0.1%)	20650	20650 (0.0%)	43725	-32 (-0.1%)
13	KORS	JAN 17 52.5 Call	0.08	-0.05 (-40.0%)	20164	20155 (223944.4%)	19660	-50 (-0.3%)
14	MCD	JAN 17 125 Call	1.39	0.17 (13.5%)	18986	18607 (4909.5%)	75481	285 (0.4%)
15	PG	JAN 17 85 Put	1.83	-0.14 (-7.1%)	17376	14556 (516.2%)	10064	2191 (27.8%)
16	CME	JAN 17 115 Call	5.65	-0.70 (-11.0%)	16192	16192 (0.0%)	1991	0 (0.0%)
17	TV	JAN 17 20 Put	0.18	0.00 (0.0%)	15468	3295 (27.1%)	22433	9300 (70.8%)
18	MU	JAN 17 24 Call	0.64	0.50 (370.4%)	15214	14616 (2444.1%)	8125	304 (3.9%)
19	MAT	FEB 17 30 Call	0.78	0.08 (10.7%)	15104	15095 (167722.2%)	205	9 (4.6%)
20	IBM	JAN 17 160 Put	1.72	0.24 (16.6%)	14126	13980 (9575.3%)	6788	24 (0.4%)
21	WBMD	JAN 17 65 Call	0.10	0.05 (100.0%)	13500	13100 (3275.0%)	22296	0 (0.0%)
22	VXX	JAN 17 23 Put	0.94	-0.08 (-8.3%)	11133	4737 (74.1%)	32311	1992 (6.6%)
23	GDX	FEB 17 23.5 Call	0.20	-0.02 (-7.0%)	10824	10824 (0.0%)	97	0 (0.0%)
24	CG	JAN 17 15 Put	0.25	0.10 (66.7%)	10575	10529 (22889.1%)	6393	20 (0.3%)
25	HYG	JAN 17 85 Put	0.24	-0.04 (-12.7%)	10400	7897 (315.5%)	76509	-2500 (-3.2%)
26	DAL	JAN 17 52 Call	0.75	-0.35 (-31.5%)	10241	10088 (6593.5%)	230	99 (75.6%)
27	STZ	JUL 17 155 Call	9.00	-0.55 (-5.8%)	10137	10136 (1013600.0%)	56	1 (1.8%)
28	FXE	JAN 17 101 Put	1.00	-0.03 (-2.9%)	9879	9779 (9779.0%)	7299	17 (0.2%)
29	XLB	MAR 17 53 Call	0.42	-0.05 (-10.8%)	9543	9543 (0.0%)	25164	0 (0.0%)
30	V	JUN 17 80 Call	3.72	-0.15 (-3.9%)	9034	8646 (2228.4%)	2700	297 (12.4%)
31	AAPL	JAN 17 120 Call	0.74	-0.21 (-22.1%)	8491	-1443 (-14.5%)	174530	-429 (-0.2%)
32	FB	JAN 17 125 Call	0.44	-0.18 (-28.7%)	8413	6457 (330.1%)	50999	-43 (-0.1%)
33	WMT	FEB 17 70 Put	2.04	0.96 (89.8%)	8348	8184 (4990.2%)	1650	99 (6.4%)
34	MSFT	JAN 17 65 Call	0.51	0.01 (2.0%)	8154	5183 (174.5%)	63812	1671 (2.7%)
35	QQQ	JAN 17 119 Put	1.18	0.07 (6.8%)	7977	-1117 (-12.3%)	16211	6731 (71.0%)
36	PAA	FEB 17 36 Call	0.35	0.00 (0.0%)	7551	7541 (75410.0%)	255	0 (0.0%)
37	XOP	MAR 17 44 Put	3.65	-0.10 (-2.7%)	7120	7119 (711900.0%)	491	0 (0.0%)
38	XLY	JAN 17 80 Put	0.40	0.13 (49.1%)	7013	6913 (6913.0%)	7074	-10 (-0.1%)
39	DLTR	FEB 17 80 Put	3.95	2.33 (143.1%)	6659	6639 (33195.0%)	138	20 (16.9%)
40	BABA	JUL 17 105 Call	1.92	-0.59 (-23.4%)	6388	6388 (0.0%)	1291	0 (0.0%)
41	KMX	JAN 17 60 Put	0.80	0.38 (88.2%)	6270	6250 (31250.0%)	1118	-1 (-0.1%)
42	CVX	JAN 17 120 Put	2.70	-0.60 (-18.3%)	6041	5763 (2073.0%)	8080	209 (2.7%)
43	KMI	FEB 17 22 Call	0.49	-0.07 (-12.6%)	5926	5451 (1147.6%)	1348	56 (4.3%)
44	EWW	JAN 17 42 Put	0.62	0.08 (16.0%)	5654	5632 (25600.0%)	6718	1 (0.0%)
45	ETE	JAN 17 17 Put	0.26	-0.08 (-24.6%)	5635	5633 (281650.0%)	52	2 (4.0%)
46	EPI	JAN 17 20 Put	0.55	0.13 (29.4%)	5314	5314 (0.0%)	38366	0 (0.0%)
47	BX	JAN 17 29 Call	0.36	-0.19 (-34.3%)	5201	4750 (1053.2%)	21577	-75 (-0.3%)
48	ACHC	JAN 17 35 Call	1.50	0.48 (46.3%)	5194	5187 (74100.0%)	69	5 (7.8%)
49	INTC	APR 17 35 Call	2.95	-0.06 (-2.2%)	5142	5079 (8061.9%)	35745	22 (0.1%)
