Rank	Stock	Option	ClosePrice	Change	Volume	VolumeChange	OI	OI Change
0	TMUS	JAN 17 55 Call	2.45	-0.03 (-1.2%)	90037	90024 (692492.3%)	96312	10 (0.0%)
1	SPY	JAN 17 230 Call	0.15	0.04 (38.1%)	75595	6253 (9.0%)	330268	-6274 (-1.9%)
2	XLF	JAN 17 23.5 Put	0.20	-0.12 (-37.5%)	66341	47424 (250.7%)	31289	17210 (122.2%)
3	BAC	JAN 17 23 Call	0.30	-0.17 (-36.6%)	62997	30775 (95.5%)	170941	10946 (6.8%)
4	EEM	SEP 17 30 Put	0.74	-0.01 (-1.3%)	44074	-51013 (-53.6%)	96367	95087 (7428.7%)
5	IWM	JAN 17 135 Put	0.38	-0.68 (-64.2%)	37010	20388 (122.7%)	64047	-1069 (-1.6%)
6	EWZ	JAN 17 35 Put	0.20	0.07 (50.0%)	35115	19103 (119.3%)	68368	15754 (29.9%)
7	XLI	FEB 17 63 Put	0.82	-0.18 (-18.0%)	30382	30313 (43931.9%)	9275	-13 (-0.1%)
8	FB	JAN 17 130 Call	0.52	0.28 (116.7%)	30156	25345 (526.8%)	45773	-1958 (-4.1%)
9	EFA	SEP 17 45 Put	0.53	-0.00 (-0.9%)	30000	30000 (0.0%)	3192	0 (0.0%)
10	FXI	JAN 17 37 Call	0.11	-0.04 (-24.1%)	27734	27717 (163041.2%)	45252	-5 (-0.0%)
11	QQQ	JAN 17 122.5 Put	0.27	-0.33 (-55.0%)	26626	22211 (503.1%)	4710	179 (4.0%)
12	XOP	JUN 17 37 Put	1.89	0.07 (4.1%)	25556	-10745 (-29.6%)	58592	35703 (156.0%)
13	AAPL	JAN 17 120 Call	0.41	-0.27 (-40.4%)	25455	-49 (-0.2%)	172300	2525 (1.5%)
14	AAL	JAN 17 48.5 Call	0.32	-0.35 (-52.3%)	20388	19964 (4708.5%)	10485	118 (1.1%)
15	VXX	JAN 17 22.5 Call	0.20	-0.13 (-39.4%)	16623	10287 (162.4%)	11419	2863 (33.5%)
16	GDX	JAN 17 22 Put	0.18	-0.08 (-30.8%)	14040	-363 (-2.5%)	38666	-151 (-0.4%)
17	MPC	FEB 17 45 Put	1.02	0.27 (36.7%)	12944	12928 (80800.0%)	4201	16 (0.4%)
18	ACWI	APR 17 59 Put	1.08	0.00 (0.0%)	12500	12500 (0.0%)	11261	0 (0.0%)
19	SLV	JAN 18 20 Call	0.70	0.00 (0.0%)	11573	11244 (3417.6%)	66721	233 (0.4%)
20	F	MAR 17 12 Call	0.79	0.02 (1.9%)	10733	10133 (1688.8%)	42622	236 (0.6%)
21	KMI	JAN 17 22.5 Call	0.35	0.08 (30.2%)	10658	7178 (206.3%)	70080	496 (0.7%)
22	GME	JAN 17 23 Put	0.57	0.14 (32.6%)	10407	7769 (294.5%)	12423	2454 (24.6%)
23	GE	JUN 17 32 Call	0.94	-0.06 (-6.5%)	10173	131 (1.3%)	37047	10000 (37.0%)
24	DIA	MAR 17 176 Put	0.51	0.02 (3.0%)	10106	10096 (100960.0%)	10098	10 (0.1%)
25	AIG	FEB 17 70 Call	0.45	-0.01 (-2.2%)	10072	10050 (45681.8%)	1850	-8 (-0.4%)
26	WFC	JAN 17 55 Put	0.46	-0.73 (-61.5%)	9976	9386 (1590.8%)	23043	280 (1.2%)
27	RF	FEB 17 16 Call	0.15	0.04 (31.8%)	9280	9263 (54488.2%)	1091	7 (0.6%)
28	XRT	JAN 17 44 Put	0.35	-0.09 (-21.3%)	9068	8796 (3233.8%)	17993	-4644 (-20.5%)
29	JPM	JAN 17 87 Call	0.68	-0.35 (-34.1%)	8989	6202 (222.5%)	4723	1140 (31.8%)
30	GLD	FEB 17 115 Call	1.58	0.10 (6.4%)	8948	6591 (279.6%)	15523	-550 (-3.4%)
31	TLT	JAN 17 118.5 Put	0.07	0.00 (8.3%)	8466	8076 (2070.8%)	493	-99 (-16.7%)
32	IYR	JAN 17 76.5 Put	0.26	-0.02 (-7.3%)	8382	7083 (545.3%)	1208	-410 (-25.3%)
33	LLY	FEB 17 80 Call	1.02	0.05 (5.2%)	7799	7495 (2465.5%)	1173	82 (7.5%)
34	C	FEB 17 57.5 Call	3.05	0.18 (6.3%)	7607	7537 (10767.1%)	20844	90 (0.4%)
35	XBI	JAN 17 66 Call	0.56	0.09 (18.9%)	7591	7411 (4117.2%)	6377	41 (0.6%)
36	TWTR	JAN 17 18 Call	0.11	-0.04 (-27.6%)	7520	6216 (476.7%)	27738	278 (1.0%)
37	INTC	JAN 17 37 Call	0.17	-0.02 (-10.5%)	7479	5589 (295.7%)	49816	-544 (-1.1%)
38	RIO	JAN 17 37.5 Call	4.55	-0.10 (-2.2%)	7169	6413 (848.3%)	20723	-515 (-2.4%)
39	TSLA	JAN 17 240 Call	2.44	1.71 (232.0%)	6859	5577 (435.0%)	7033	231 (3.4%)
40	XLE	FEB 17 73 Put	0.96	-0.08 (-8.1%)	6808	6725 (8102.4%)	746	-6 (-0.8%)
41	LOW	JAN 17 73 Call	0.28	0.07 (33.3%)	6673	6645 (23732.1%)	4142	21 (0.5%)
42	CTL	FEB 17 25 Call	1.00	0.05 (5.3%)	6604	6490 (5693.0%)	916	84 (10.1%)
43	PFE	JAN 17 32.5 Put	0.27	-0.01 (-3.6%)	6475	5765 (812.0%)	4701	201 (4.5%)
44	PG	JAN 17 80 Call	3.97	0.15 (3.9%)	6058	6050 (75625.0%)	21441	-6 (-0.0%)
45	HYG	FEB 17 87 Call	0.66	-0.02 (-2.2%)	6032	6032 (0.0%)	13819	0 (0.0%)
46	NUE	FEB 17 60 Put	2.07	0.02 (0.7%)	6030	6012 (33400.0%)	689	3 (0.4%)
47	TRUE	APR 17 12.5 Call	1.33	0.02 (1.9%)	6022	6000 (27272.7%)	59193	0 (0.0%)
48	VWO	JAN 19 50 Call	0.60	0.05 (9.1%)	6014	6014 (0.0%)	505	0 (0.0%)
49	CSCO	FEB 17 30 Call	0.81	-0.02 (-3.0%)	5890	5607 (1981.3%)	13512	132 (1.0%)
