Rank	Stock	Option	ClosePrice	Change	Volume	VolumeChange	OI	OI Change
0	VXX	FEB 17 18 Put	0.24	-0.13 (-34.2%)	42878	41782 (3812.2%)	25265	61 (0.2%)
1	SPY	FEB 17 222 Put	0.52	0.01 (1.0%)	33882	25194 (290.0%)	230475	675 (0.3%)
2	HYG	APR 17 85 Put	0.73	-0.14 (-16.1%)	29312	29307 (586140.0%)	4415	2505 (131.2%)
3	GDX	MAR 17 21.5 Put	0.36	-0.11 (-23.7%)	26517	26374 (18443.4%)	27723	23 (0.1%)
4	XLF	JAN 18 21 Put	0.99	0.02 (1.5%)	24000	24000 (0.0%)	73057	0 (0.0%)
5	MET	MAR 17 55 Call	0.53	-0.97 (-64.9%)	21677	20973 (2979.1%)	11628	72 (0.6%)
6	QQQ	MAR 17 122 Put	1.19	0.14 (13.8%)	20664	7694 (59.3%)	31798	11007 (52.9%)
7	IWM	MAR 17 133 Put	2.48	0.21 (9.0%)	18467	17873 (3008.9%)	35099	176 (0.5%)
8	EEM	JUN 17 37 Put	1.41	-0.05 (-3.1%)	17627	17444 (9532.2%)	19112	107 (0.6%)
9	FB	FEB 17 125 Put	0.63	-0.46 (-42.4%)	17030	9395 (123.1%)	21169	1505 (7.7%)
10	P	JUN 17 16 Call	0.45	-0.01 (-1.1%)	15758	15758 (0.0%)	27551	0 (0.0%)
11	KANG	FEB 17 17.5 Call	0.08	-0.22 (-75.0%)	15664	15664 (0.0%)	6195	0 (0.0%)
12	TEVA	SEP 17 40 Call	1.12	0.09 (8.8%)	15554	15552 (777600.0%)	112	27 (31.8%)
13	DB	FEB 17 20 Call	0.48	-0.54 (-52.7%)	15273	14479 (1823.6%)	18117	-602 (-3.2%)
14	INTC	MAR 17 39 Call	0.11	0.01 (10.5%)	14838	9524 (179.2%)	15897	5006 (46.0%)
15	VZ	APR 17 50 Call	0.59	-0.06 (-8.5%)	14428	13529 (1504.9%)	7662	731 (10.5%)
16	AAPL	FEB 17 130 Call	0.72	-0.80 (-52.6%)	14098	-14184 (-50.2%)	57727	4856 (9.2%)
17	COP	FEB 17 50 Call	0.57	-0.01 (-0.9%)	14072	13575 (2731.4%)	9054	15 (0.2%)
18	ETE	JAN 18 10 Call	8.43	0.30 (3.7%)	13697	13697 (0.0%)	20798	0 (0.0%)
19	AA	FEB 17 39 Call	0.60	0.25 (71.4%)	13665	13653 (113775.0%)	811	-23 (-2.8%)
20	MSFT	MAR 17 62.5 Call	1.67	-0.21 (-11.2%)	13583	13003 (2241.9%)	6361	98 (1.6%)
21	GE	JAN 18 28 Put	1.71	-0.04 (-2.6%)	12855	12547 (4073.7%)	65642	227 (0.3%)
22	GM	MAR 17 34 Put	0.75	0.05 (7.2%)	12679	12552 (9883.5%)	6089	3 (0.0%)
23	GMLP	FEB 17 22.5 Call	3.10	0.70 (29.2%)	12502	12473 (43010.3%)	12085	-15 (-0.1%)
24	XOP	FEB 17 40.5 Call	0.65	0.09 (17.1%)	12137	12120 (71294.1%)	2411	0 (0.0%)
25	BAC	MAR 17 23 Call	0.63	-0.12 (-15.4%)	11286	4311 (61.8%)	59671	-449 (-0.7%)
26	XLK	FEB 17 51 Call	0.17	-0.04 (-19.0%)	10866	10790 (14197.4%)	15313	2 (0.0%)
27	XLE	FEB 17 77 Call	0.06	0.04 (140.0%)	10865	10079 (1282.3%)	5971	-400 (-6.3%)
28	SLV	FEB 17 16.5 Put	0.24	-0.05 (-17.2%)	10531	10486 (23302.2%)	2572	1 (0.0%)
29	MGM	FEB 17 30.5 Call	0.19	0.02 (12.1%)	10467	10467 (0.0%)	297	3 (1.0%)
30	GLD	MAY 17 118 Call	2.75	0.53 (23.6%)	10266	10226 (25565.0%)	186	31 (20.0%)
31	NRZ	AUG 17 17.5 Call	0.18	0.02 (16.7%)	10207	10207 (0.0%)	746	0 (0.0%)
32	JWN	APR 17 47.5 Call	1.54	0.02 (1.0%)	10144	10134 (101340.0%)	662	-6 (-0.9%)
33	NXPI	JUL 17 50 Put	0.10	-0.02 (-20.0%)	10030	10030 (0.0%)	900	0 (0.0%)
34	FCX	FEB 17 16.5 Put	0.47	-0.05 (-8.7%)	9853	9506 (2739.5%)	1251	38 (3.1%)
35	FXI	AUG 17 33 Put	1.00	-0.02 (-1.5%)	9750	9750 (0.0%)	5395	0 (0.0%)
36	CMCSA	SEP 17 82.5 Call	1.77	-0.15 (-7.6%)	9501	9501 (0.0%)	117	0 (0.0%)
37	JD	JAN 18 40 Call	0.97	0.04 (4.9%)	9019	9019 (0.0%)	11575	0 (0.0%)
38	CL	MAR 17 65 Put	0.91	-0.51 (-36.3%)	8925	8925 (0.0%)	546	53 (10.8%)
39	TLT	APR 17 127 Call	0.48	-0.04 (-7.8%)	8540	8538 (426900.0%)	498	0 (0.0%)
40	BMY	JAN 19 65 Call	2.44	-0.15 (-5.6%)	8413	8409 (210225.0%)	10217	4 (0.0%)
41	TMUS	AUG 17 80 Call	1.07	-0.28 (-20.8%)	8300	8114 (4362.4%)	186	186 (0.0%)
42	MJN	FEB 17 80 Put	1.20	-8.83 (-88.0%)	8070	8070 (0.0%)	1125	0 (0.0%)
43	ECA	FEB 17 13 Call	0.38	0.00 (0.0%)	8005	8003 (400150.0%)	2501	6 (0.2%)
44	RH	MAR 17 27.5 Call	2.17	0.35 (19.2%)	7877	7877 (0.0%)	2512	-11 (-0.4%)
45	ORCL	MAR 17 39 Put	0.59	-0.08 (-11.3%)	7665	7628 (20616.2%)	4039	10 (0.2%)
46	PFE	JAN 18 30 Put	1.74	-0.09 (-4.7%)	7527	7479 (15581.3%)	46650	-4 (-0.0%)
47	RSX	MAR 17 21 Call	1.17	0.15 (14.6%)	7525	7525 (0.0%)	291	259 (809.4%)
48	T	OCT 17 46 Call	0.45	-0.16 (-26.2%)	7513	13 (0.2%)	7547	7500 (15957.4%)
49	APC	MAY 17 75 Call	1.98	0.23 (13.1%)	7044	6934 (6303.6%)	1053	-21 (-2.0%)
