Rank	Stock	Option	ClosePrice	Change	Volume	VolumeChange	OI	OI Change
0	BAC	JUN 17 26 Call	0.29	-0.23 (-44.7%)	89812	86997 (3090.5%)	35580	1477 (4.3%)
1	XLF	JUN 17 26 Call	0.10	-0.09 (-47.4%)	86814	86556 (33548.8%)	119801	61 (0.1%)
2	SPY	APR 17 240 Call	0.47	-0.58 (-55.3%)	84776	35863 (73.3%)	128452	28711 (28.8%)
3	EEM	APR 17 40.5 Call	0.34	-0.10 (-22.7%)	75442	58318 (340.6%)	150538	7907 (5.5%)
4	EFA	JUN 17 58 Put	0.66	0.08 (14.8%)	46004	45848 (29389.7%)	41969	32 (0.1%)
5	QQQ	MAY 17 132 Call	1.60	-0.87 (-35.3%)	40188	38206 (1927.6%)	4460	622 (16.2%)
6	EWZ	APR 17 33 Put	0.29	0.13 (78.1%)	40159	-16089 (-28.6%)	56986	56182 (6987.8%)
7	ETE	APR 17 20 Call	0.16	-0.00 (-0.0%)	27819	26009 (1437.0%)	14687	965 (7.0%)
8	JNK	JUN 17 35 Put	0.35	0.13 (55.6%)	25711	25711 (0.0%)	2113	0 (0.0%)
9	HYG	APR 17 86 Put	0.83	0.38 (85.4%)	23273	19779 (566.1%)	48978	552 (1.1%)
10	AAPL	APR 17 145 Call	0.66	-0.20 (-23.7%)	23134	18355 (384.1%)	34357	1936 (6.0%)
11	KSS	APR 17 35 Put	0.53	0.13 (31.3%)	21252	20975 (7572.2%)	2465	-118 (-4.6%)
12	FXI	MAY 17 42.5 Call	0.22	-0.05 (-18.2%)	20675	20627 (42972.9%)	121	48 (65.8%)
13	FEZ	MAY 17 36 Call	1.20	-0.03 (-2.0%)	20050	20047 (668233.3%)	11470	-3 (-0.0%)
14	URBN	APR 17 21 Put	0.30	0.10 (50.0%)	19854	19704 (13136.0%)	213	150 (238.1%)
15	IWM	APR 17 132 Put	1.87	1.14 (154.4%)	19761	11311 (133.9%)	68881	1628 (2.4%)
16	CFG	APR 17 40 Call	0.18	-0.35 (-66.7%)	19048	9725 (104.3%)	23352	1421 (6.5%)
17	GLD	APR 17 115 Put	0.35	-0.17 (-33.0%)	19039	18607 (4307.2%)	14233	165 (1.2%)
18	SLV	MAY 17 18 Call	0.16	0.02 (14.8%)	16035	15967 (23480.9%)	5038	58 (1.2%)
19	INTC	MAY 17 38 Call	0.14	-0.04 (-25.0%)	15864	15560 (5118.4%)	9071	100 (1.1%)
20	GLNG	SEP 17 30 Call	2.28	-0.12 (-5.2%)	15579	15454 (12363.2%)	707	122 (20.9%)
21	ATVI	APR 17 48 Put	1.12	0.32 (39.1%)	14522	14460 (23322.6%)	463	1 (0.2%)
22	TLT	SEP 17 114 Put	2.09	-0.35 (-14.2%)	14013	14013 (0.0%)	215	0 (0.0%)
23	FB	APR 17 135 Put	1.34	0.60 (80.4%)	12053	7486 (163.9%)	21687	2892 (15.4%)
24	C	APR 17 62.5 Call	0.23	-0.15 (-40.0%)	11820	9448 (398.3%)	36928	-124 (-0.3%)
25	XBI	APR 17 68 Put	2.39	1.50 (170.1%)	11609	11520 (12943.8%)	9753	2 (0.0%)
26	UPS	MAY 17 80 Put	0.06	-0.00 (-7.7%)	11521	10521 (1052.1%)	1000	1000 (0.0%)
27	GE	MAY 17 28 Put	0.26	0.05 (24.4%)	10599	10551 (21981.3%)	3389	33 (1.0%)
28	XLE	APR 17 70 Call	1.01	-0.15 (-12.9%)	10478	9897 (1703.4%)	7820	128 (1.7%)
29	PFE	APR 17 35 Call	0.24	-0.01 (-4.0%)	10395	9192 (764.1%)	69603	755 (1.1%)
30	T	MAY 17 40 Put	0.45	0.09 (25.4%)	10304	10184 (8486.7%)	1968	71 (3.7%)
31	FCX	MAY 17 12 Put	0.62	0.10 (20.6%)	10199	5706 (127.0%)	71462	2060 (3.0%)
32	MU	JUL 17 22 Call	4.72	-0.38 (-7.4%)	10174	2062 (25.4%)	11056	7662 (225.8%)
33	XOP	JUN 17 40 Call	0.66	-0.14 (-17.5%)	10081	9567 (1861.3%)	26005	395 (1.5%)
34	ABX	JAN 19 35 Call	1.11	0.02 (1.8%)	10056	10056 (0.0%)	41330	0 (0.0%)
35	CRC	APR 17 13 Put	0.83	0.20 (32.0%)	10050	10024 (38553.8%)	3141	15 (0.5%)
36	XLU	SEP 17 54 Call	0.99	0.23 (30.5%)	10000	9970 (33233.3%)	3161	-3 (-0.1%)
37	GPS	APR 17 21 Put	0.33	0.13 (65.0%)	9243	9222 (43914.3%)	1889	8 (0.4%)
38	LEN	APR 17 55 Call	0.23	-0.47 (-67.1%)	8938	7386 (475.9%)	3772	1192 (46.2%)
39	FRED	APR 17 20 Call	0.20	0.00 (0.0%)	8571	8541 (28470.0%)	13795	7 (0.1%)
40	AMD	APR 17 14 Call	0.89	-0.29 (-24.7%)	8435	-2207 (-20.7%)	82841	-1193 (-1.4%)
41	XOM	MAY 17 60 Put	0.04	0.00 (0.0%)	8202	6306 (332.6%)	1702	1664 (4378.9%)
42	WY	JUL 17 33 Call	1.73	-0.13 (-6.8%)	8106	8106 (0.0%)	9169	0 (0.0%)
43	BABA	APR 17 110 Call	0.91	-0.49 (-34.9%)	7778	-3943 (-33.6%)	44803	6429 (16.8%)
44	MGM	JUN 17 30 Call	0.40	-0.12 (-22.5%)	7559	2153 (39.8%)	24286	5094 (26.5%)
45	SCHW	APR 17 42 Put	2.15	1.08 (100.0%)	7543	7539 (188475.0%)	2263	-1 (-0.0%)
46	RHT	APR 17 90 Call	0.70	-0.43 (-37.8%)	7147	7138 (79311.1%)	5331	3 (0.1%)
47	KRE	APR 17 52 Put	1.04	0.81 (342.6%)	7058	6328 (866.8%)	1698	720 (73.6%)
48	HD	APR 17 152.5 Call	0.38	-0.13 (-24.8%)	7022	6883 (4951.8%)	106	106 (0.0%)
49	XLI	JUN 17 62 Put	0.92	0.21 (30.5%)	7005	7005 (0.0%)	9117	0 (0.0%)
