Rank	Stock	Option	ClosePrice	Change	Volume	VolumeChange	OI	OI Change
0	VRX	JAN 17 27.5 Call	0.03	-0.03 (-58.3%)	46298	46218 (57772.5%)	61840	-75 (-0.1%)
1	SPY	MAR 17 216 Put	3.07	0.54 (21.6%)	38738	32316 (503.2%)	64082	6048 (10.4%)
2	HYG	JAN 17 85.5 Put	0.32	0.03 (12.3%)	30000	30000 (0.0%)	1500	0 (0.0%)
3	BAC	JAN 17 24 Call	0.14	-0.05 (-28.2%)	25994	24181 (1333.8%)	44353	668 (1.5%)
4	EEM	JAN 17 33 Put	0.16	-0.05 (-23.3%)	22639	22431 (10784.1%)	165584	-118 (-0.1%)
5	XLF	JAN 17 23 Put	0.25	0.08 (42.9%)	22383	21080 (1617.8%)	114737	-639 (-0.6%)
6	INTC	JAN 17 38.5 Call	0.09	-0.10 (-51.4%)	21848	21623 (9610.2%)	1356	213 (18.6%)
7	CIT	JAN 17 42 Call	1.75	-0.34 (-16.1%)	20593	20593 (0.0%)	548	0 (0.0%)
8	GLW	JAN 17 26 Call	0.05	-0.09 (-63.0%)	20572	20572 (0.0%)	1828	1 (0.1%)
9	XOP	MAR 17 44 Call	1.63	-0.16 (-9.0%)	17989	17918 (25236.6%)	15642	-2 (-0.0%)
10	FXI	JAN 17 33 Put	0.32	-0.03 (-9.9%)	17564	9533 (118.7%)	56449	7741 (15.9%)
11	QQQ	FEB 17 114 Put	1.06	0.29 (36.8%)	16997	16986 (154418.2%)	2205	36 (1.7%)
12	HPE	JAN 17 21 Put	0.05	0.00 (0.0%)	15966	15966 (0.0%)	1158	0 (0.0%)
13	XLU	JAN 17 46 Put	0.18	0.03 (24.1%)	15144	13111 (644.9%)	49597	1999 (4.2%)
14	MGM	JAN 17 31 Call	0.14	-0.07 (-31.7%)	13093	12976 (11090.6%)	7834	-10 (-0.1%)
15	AAPL	JAN 17 110 Call	7.13	-0.53 (-6.9%)	11785	9439 (402.3%)	169144	-1090 (-0.6%)
16	C	MAR 17 65 Call	1.13	-0.24 (-17.2%)	11746	11316 (2631.6%)	14691	332 (2.3%)
17	IWM	JAN 17 121 Put	0.13	0.05 (52.9%)	10846	10772 (14556.8%)	35331	-5 (-0.0%)
18	GDX	MAR 17 22.5 Call	0.84	0.21 (34.4%)	10808	10793 (71953.3%)	7783	4 (0.1%)
19	GE	JAN 17 32 Call	0.41	-0.11 (-21.4%)	10740	9768 (1004.9%)	225922	-378 (-0.2%)
20	EWZ	JAN 17 32 Put	0.66	-0.22 (-25.0%)	10633	4623 (76.9%)	48480	4511 (10.3%)
21	BABA	FEB 17 100 Call	0.62	0.00 (0.0%)	10435	8812 (542.9%)	34305	149 (0.4%)
22	FCX	FEB 17 13 Call	1.39	-0.23 (-13.9%)	10237	10196 (24868.3%)	4399	33 (0.8%)
23	MUB	JAN 17 108 Put	0.73	-0.13 (-14.7%)	10100	10100 (0.0%)	4501	0 (0.0%)
24	AA	FEB 17 32 Call	0.93	-0.10 (-9.8%)	10086	10086 (0.0%)	240	0 (0.0%)
25	JBLU	JAN 17 22 Call	0.75	-0.15 (-16.7%)	9696	9624 (13366.7%)	20120	-21 (-0.1%)
26	NVDA	JAN 17 120 Call	1.96	-2.55 (-56.6%)	8454	3185 (60.4%)	3232	1736 (116.0%)
27	PFE	JAN 17 32 Call	0.77	-0.14 (-14.9%)	7901	7707 (3972.7%)	87498	-33 (-0.0%)
28	KATE	FEB 17 16 Call	2.60	2.05 (372.7%)	6981	6981 (0.0%)	9496	1411 (17.5%)
29	VXX	MAR 17 24 Put	2.77	-0.38 (-12.1%)	6765	984 (17.0%)	12898	-281 (-2.1%)
30	ABX	JAN 17 24 Call	0.01	0.01 (100.0%)	6561	6559 (327950.0%)	41926	-2 (-0.0%)
31	MU	APR 17 20 Call	3.75	-0.43 (-10.2%)	6482	4649 (253.6%)	18335	-1167 (-6.0%)
32	XLP	JAN 17 49 Put	0.07	0.01 (18.2%)	6110	6110 (0.0%)	26052	0 (0.0%)
33	NEM	JAN 18 55 Call	1.01	-0.07 (-6.5%)	6090	6090 (0.0%)	1014	0 (0.0%)
34	AAL	JAN 17 48.5 Call	1.25	-0.34 (-21.2%)	6057	6017 (15042.5%)	191	40 (26.5%)
35	EFA	MAR 17 63 Call	0.03	-0.02 (-33.3%)	6000	5994 (99900.0%)	5644	0 (0.0%)
36	CMCSA	APR 17 72.5 Call	2.22	-0.17 (-7.3%)	5969	5799 (3411.2%)	11143	138 (1.3%)
37	MBLY	JUN 17 35 Put	3.95	-0.05 (-1.3%)	5859	5857 (292850.0%)	2859	2 (0.1%)
38	BHI	JAN 17 60 Put	0.53	0.08 (16.5%)	5788	5788 (0.0%)	1016	0 (0.0%)
39	XLE	MAR 17 76 Put	3.08	0.46 (17.4%)	5335	5335 (0.0%)	1167	0 (0.0%)
40	SYF	JUN 17 37 Call	2.70	-0.15 (-5.3%)	5322	5322 (0.0%)	1914	0 (0.0%)
41	PRU	JAN 17 105 Call	2.56	-1.11 (-30.3%)	5235	5178 (9084.2%)	6808	-2 (-0.0%)
42	MDLZ	JAN 17 42 Put	0.43	0.00 (0.0%)	5187	5178 (57533.3%)	17042	-4 (-0.0%)
43	DOW	JAN 17 50 Put	0.09	0.01 (5.9%)	5156	5146 (51460.0%)	24391	20 (0.1%)
44	TLT	MAR 17 129 Call	0.43	0.08 (22.9%)	5070	5069 (506900.0%)	10523	1 (0.0%)
45	AXDX	FEB 17 5 Put	0.10	-0.07 (-42.9%)	5060	5060 (0.0%)	12574	0 (0.0%)
46	JPM	MAR 17 70 Put	0.36	0.04 (14.3%)	5021	4865 (3118.6%)	12774	-70 (-0.5%)
47	FXE	JUN 17 108 Call	0.82	-0.07 (-7.9%)	5010	5010 (0.0%)	5039	0 (0.0%)
48	GLD	JAN 17 145 Call	0.01	0.01 (100.0%)	5005	5005 (0.0%)	43513	0 (0.0%)
49	FB	JAN 17 120 Call	1.14	-0.27 (-19.5%)	4989	-429 (-7.9%)	59275	1349 (2.3%)
